^C:\USERS\ELIJAH\DOCUMENTS\SOURCE TREE REPOSITORIES\DOLLAZ-AND-SENSE\SNAKES\SNAKES\MAIN.CPP|C:\USERS\ELIJAH\DOCUMENTS\SOURCE TREE REPOSITORIES\DOLLAZ-AND-SENSE\SNAKES\SNAKES\MAP.CPP|C:\USERS\ELIJAH\DOCUMENTS\SOURCE TREE REPOSITORIES\DOLLAZ-AND-SENSE\SNAKES\SNAKES\POSITION.CPP|C:\USERS\ELIJAH\DOCUMENTS\SOURCE TREE REPOSITORIES\DOLLAZ-AND-SENSE\SNAKES\SNAKES\SNAKE.CPP
C:\USERS\ELIJAH\DOCUMENTS\SOURCE TREE REPOSITORIES\DOLLAZ-AND-SENSE\SNAKES\SNAKES\DEBUG\VC142.PDB
C:\USERS\ELIJAH\DOCUMENTS\SOURCE TREE REPOSITORIES\DOLLAZ-AND-SENSE\SNAKES\SNAKES\DEBUG\VC142.IDB
C:\USERS\ELIJAH\DOCUMENTS\SOURCE TREE REPOSITORIES\DOLLAZ-AND-SENSE\SNAKES\SNAKES\DEBUG\SNAKE.OBJ
C:\USERS\ELIJAH\DOCUMENTS\SOURCE TREE REPOSITORIES\DOLLAZ-AND-SENSE\SNAKES\SNAKES\DEBUG\POSITION.OBJ
C:\USERS\ELIJAH\DOCUMENTS\SOURCE TREE REPOSITORIES\DOLLAZ-AND-SENSE\SNAKES\SNAKES\DEBUG\MAP.OBJ
C:\USERS\ELIJAH\DOCUMENTS\SOURCE TREE REPOSITORIES\DOLLAZ-AND-SENSE\SNAKES\SNAKES\DEBUG\MAIN.OBJ
^C:\USERS\ELIJAH\DOCUMENTS\SOURCE TREE REPOSITORIES\DOLLAZ-AND-SENSE\SNAKES\SNAKES\MAIN.CPP
C:\USERS\ELIJAH\DOCUMENTS\SOURCE TREE REPOSITORIES\DOLLAZ-AND-SENSE\SNAKES\SNAKES\DEBUG\VC142.PDB
^C:\USERS\ELIJAH\DOCUMENTS\SOURCE TREE REPOSITORIES\DOLLAZ-AND-SENSE\SNAKES\SNAKES\POSITION.CPP
C:\USERS\ELIJAH\DOCUMENTS\SOURCE TREE REPOSITORIES\DOLLAZ-AND-SENSE\SNAKES\SNAKES\DEBUG\VC142.PDB
^C:\USERS\ELIJAH\DOCUMENTS\SOURCE TREE REPOSITORIES\DOLLAZ-AND-SENSE\SNAKES\SNAKES\SNAKE.CPP
C:\USERS\ELIJAH\DOCUMENTS\SOURCE TREE REPOSITORIES\DOLLAZ-AND-SENSE\SNAKES\SNAKES\DEBUG\VC142.PDB
^C:\USERS\ELIJAH\DOCUMENTS\SOURCE TREE REPOSITORIES\DOLLAZ-AND-SENSE\SNAKES\SNAKES\MAP.CPP
C:\USERS\ELIJAH\DOCUMENTS\SOURCE TREE REPOSITORIES\DOLLAZ-AND-SENSE\SNAKES\SNAKES\DEBUG\VC142.PDB
C:\USERS\ELIJAH\DOCUMENTS\SOURCE TREE REPOSITORIES\DOLLAZ-AND-SENSE\SNAKES\SNAKES\DEBUG\VC142.IDB
C:\USERS\ELIJAH\DOCUMENTS\SOURCE TREE REPOSITORIES\DOLLAZ-AND-SENSE\SNAKES\SNAKES\DEBUG\MAP.OBJ
